{
    "Barrel": [
        [
            [
                5,
                85
            ],
            [
                12,
                0
            ],
            [],
            [
                6,
                0
            ],
            [
                58,
                71,
                100
            ],
            [
                10,
                24
            ],
            [
                9,
                44
            ],
            [
                0
            ],
            [
                0,
                20,
                18,
                52
            ],
            [],
            [
                0,
                22,
                42
            ],
            [
                102
            ],
            [
                2,
                4,
                37
            ],
            [
                6,
                40
            ],
            [],
            [
                53,
                54
            ],
            [
                5,
                46,
                93
            ],
            [
                43,
                81,
                80,
                79
            ],
            [],
            [
                40,
                0
            ],
            [
                70
            ],
            [
                0
            ],
            [
                83
            ],
            [
                101
            ],
            [
                80
            ],
            [
                27
            ],
            [],
            [],
            [
                96
            ],
            [
                46
            ],
            [
                94
            ],
            [
                40,
                93
            ]
        ],
        [
            [
                5
            ],
            [
                54
            ],
            [
                5,
                32,
                63
            ],
            [
                78
            ],
            [
                5,
                35,
                83
            ],
            [
                5
            ],
            [
                5,
                75
            ],
            [
                14,
                10,
                80
            ],
            [
                5
            ],
            [
                5,
                92
            ],
            [],
            [
                5
            ],
            [
                5,
                11
            ],
            [
                53
            ],
            [
                5,
                71
            ],
            [
                9,
                41,
                0
            ],
            [
                5,
                24,
                23,
                59
            ],
            [
                35,
                80
            ],
            [
                4,
                69
            ],
            [],
            [
                0,
                18,
                5
            ],
            [
                5,
                67
            ],
            [
                5,
                0
            ],
            [
                41
            ],
            [],
            [
                9
            ],
            [
                5,
                54,
                62
            ],
            [
                5,
                30
            ],
            [
                82
            ],
            [
                0,
                1,
                5
            ],
            [
                5
            ],
            [
                19,
                15
            ]
        ]
    ],
    "Endcap": [
        [
            [],
            [
                134,
                0,
                28,
                29
            ],
            [],
            [
                59,
                70
            ],
            [],
            [
                106
            ],
            [],
            [],
            [
                128
            ],
            [],
            [],
            [],
            [],
            [
                176,
                0
            ],
            [
                238
            ],
            [],
            [],
            [
                0,
                263,
                40,
                130,
                165
            ],
            [],
            [],
            [],
            [],
            [
                0
            ],
            [
                316,
                0,
                206
            ],
            [
                0
            ],
            [],
            [],
            [],
            [],
            [
                300,
                196
            ],
            [],
            []
        ],
        [
            [
                99
            ],
            [],
            [],
            [],
            [
                239
            ],
            [],
            [],
            [],
            [
                128,
                196
            ],
            [
                115
            ],
            [
                220,
                293,
                119,
                190
            ],
            [
                332
            ],
            [
                0,
                213
            ],
            [
                140,
                0,
                39,
                207
            ],
            [],
            [
                0,
                201,
                211,
                62,
                98,
                104
            ],
            [
                40,
                66
            ],
            [
                46
            ],
            [],
            [
                261,
                263,
                264,
                266,
                267,
                270,
                271
            ],
            [
                23
            ],
            [],
            [
                55
            ],
            [],
            [],
            [
                0
            ],
            [
                0,
                22
            ],
            [
                0
            ],
            [
                26
            ],
            [],
            [
                0,
                244,
                143
            ],
            [
                0,
                147,
                183
            ]
        ]
    ]
}