         run       event       nTopo   nIdTracks  nTauTracks       nTaus      nMuons       nElec   nTrueElec   nFakeElec       nPhot   nTruePhot   nFakePhot
      431493  1096110158         311         446          87           6           1          15           0          15          15           0          15
      431493  1096111916         286         319          49           6           0          10           0          10          14           0          14
      431493  1096112143         267         388          46           4           1           1           0           1           2           0           2
      431493  1096113011         367         402          71           9           0           9           0           9          11           0          11
      431493  1096113187         274         319          71           7           1           9           0           9          15           0          15
      431493  1096113771         294         408          77           6           0          10           0          10          12           0          12
      431493  1096114154         374         572          87           6           0           6           0           6          18           0          18
      431493  1096114168         132         151          17           4           0           2           0           2           6           0           6
      431493  1096115980         390         518         130          10           1          20           0          20          22           0          22
      431493  1096116200         309         410          57           6           1           4           0           4          12           0          12
      431493  1096118782         294         357          95           7           1          12           0          12          23           0          23
      431493  1096119418         307         337          81           6           0           5           0           5           9           0           9
      431493  1096119460         227         313          15           2           0           2           0           2           5           0           5
      431493  1096120001         388         585         124           8           1          14           0          14          18           0          18
      431493  1096122174         301         412          72           8           0           5           0           5          23           0          23
      431493  1096123090         428         536         158          11           0          20           0          20          28           0          28
      431493  1096123254         489         685          96           7           2          14           0          14          27           0          27
      431493  1096123504         260         341          52           5           0           8           0           8          11           0          11
      431493  1096125003         350         451          86           7           0          10           0          10          17           0          17
      431493  1096125237         358         496          83           7           1           8           0           8          15           0          15
      431493  1096125348         298         346          54           5           1           8           0           8           8           0           8
      431493  1096125522         255         305          68           9           1           7           0           7          16           0          16
      431493  1096127413         400         583         103           7           1          10           0          10          24           0          24
      431493  1096127722         223         416          55           7           1           7           0           7           7           0           7
      431493  1096128475         165         251          31           5           0           1           0           1          11           0          11
      431493  1096128958         301         370          77           7           0          14           0          14          22           0          22
      431493  1096129516         305         431          15           2           1           2           0           2          12           0          12
      431493  1096130319         318         520          76           6           0          10           0          10          15           0          15
      431493  1096130794         340         449         113           8           1          15           0          15          22           0          22
      431493  1096131620         400         576         131           9           0          13           0          13          26           0          26
      431493  1096131904         328         437          83           9           0          12           0          12          11           0          11
      431493  1096132044         277         303          22           4           1           2           0           2           8           0           8
      431493  1096132412         331         388          66           8           2           5           0           5          10           0          10
      431493  1096132653         357         373          67           9           0           8           0           8          16           0          16
      431493  1096133511           1           0           0           0           0           0           0           0           0           0           0
      431493  1096133828         288         376          90           7           3          14           0          14          11           0          11
      431493  1096134918         631         930         303          14           1          20           0          20          34           0          34
      431493  1096137274         252         282          32           4           1           5           0           5           6           0           6
      431493  1096137322         415         585          72           4           0           4           0           4           9           0           9
      431493  1096137395         354         431          70           7           0           5           0           5          11           0          11
      431493  1096137906         161         179          20           4           2           5           0           5           7           0           7
      431493  1096139648         219         205          27           5           3           2           0           2           7           0           7
      431493  1096139847         242         367          40           6           2           1           0           1           8           0           8
      431493  1096142414         373         506         111           8           0           7           0           7          23           0          23
      431493  1096143027         398         499          84           9           1           3           0           3          11           0          11
      431493  1096144036         268         343          65           5           0          12           0          12          14           0          14
      431493  1096145110         241         257          18           2           0           5           0           5           8           0           8
      431493  1096146639         283         422          77           6           0           3           0           3          18           0          18
      431493  1096146735         321         377         105          10           2          21           0          21          26           0          26
      431493  1096147568         392         600          41           4           2           4           0           4          14           0          14
      431493  1096150983         272         320          22           5           0           2           0           2          13           0          13
      431493  1096152978         365         498          87           7           1           8           0           8          11           0          11
      431493  1096153967         539         654         110          10           2           7           0           7          33           0          33
      431493  1096155046         240         373          32           4           1           1           0           1           3           0           3
      431493  1096155387         335         486          84           9           1           7           0           7          15           0          15
      431493  1096155429         374         453          93           8           0           7           0           7          17           0          17
      431493  1096155463         357         465          48           4           0           4           0           4          13           0          13
      431493  1096156230         344         459         110           9           0          10           0          10          14           0          14
      431493  1096157777         244         358          57           6           1           2           0           2           9           0           9
      431493  1096159760         368         456          42           4           0           7           0           7          14           0          14
      431493  1096159903         232         279          60           8           0           9           0           9          14           0          14
      431493  1096160558         247         368          40           4           0           2           0           2          10           0          10
      431493  1096161183         249         316          53           4           0          12           0          12           7           0           7
      431493  1096162191         348         390          14           2           1           1           0           1           8           0           8
      431493  1096163035         344         448         120          10           0          14           0          14          26           0          26
      431493  1096163900         337         461          70           7           0          12           0          12          19           0          19
      431493  1096164842         307         442          50           5           1           3           0           3           9           0           9
      431493  1096167556         330         425          74           7           1           9           0           9          11           0          11
      431493  1096168429         297         415          99           8           0           6           0           6           8           0           8
      431493  1096171532         341         416          88           9           0          13           0          13          14           0          14
      431493  1096171788         310         441          60           4           0           9           0           9          12           0          12
      431493  1096171838         423         615         140           9           0          10           0          10          25           0          25
      431493  1096173554         314         425          47           5           1           4           0           4           9           0           9
      431493  1096173910         355         572         107           8           1          11           0          11           9           0           9
      431493  1096176781         366         440          89          10           0          11           0          11          20           0          20
      431493  1096177006         309         381          45           5           0           7           0           7          11           0          11
      431493  1096177862         252         280          13           2           0           2           0           2          11           0          11
      431493  1096177918         374         500         100           7           1           6           0           6          13           0          13
      431493  1096178101         361         439          19           3           0           1           0           1          10           0          10
      431493  1096178859         348         361          38           5           1           7           0           7          14           0          14
      431493  1096180059         377         436          34           4           1           2           0           2          22           0          22
      431493  1096181059         229         262          38           5           1           7           0           7          10           0          10
      431493  1096181128         363         556          83           8           2           6           0           6          14           0          14
      431493  1096182354         308         314          58           6           1          13           0          13          16           0          16
      431493  1096182555         238         357          58           7           0           6           0           6           9           0           9
      431493  1096183473         218         253          45           4           0          12           0          12           9           0           9
      431493  1096184610         380         428         105           7           1          16           0          16          11           0          11
      431493  1096185473         341         482          63           5           0           9           0           9          14           0          14
      431493  1096188650         206         291          39           4           0           5           0           5          12           0          12
      431493  1096190892         292         399          96           8           1           6           0           6          11           0          11
      431493  1096191815         269         352          49           5           1           6           0           6          16           0          16
      431493  1096194353         316         449          60           5           1           8           0           8          12           0          12
      431493  1096199978         274         446          75           6           0           8           0           8          11           0          11
      431493  1096205163         233         317          45           4           0           4           0           4          12           0          12
      431493  1096207298         390         462          55           5           0           1           0           1          16           0          16
      431493  1096209204         409         548          79           9           0          10           0          10          21           0          21
      431493  1096211915         330         373          62           6           0           7           0           7          18           0          18
      431493  1096218966         301         392          17           2           1           4           0           4          10           0          10
      431493  1096226529         318         396         102          10           0          11           0          11          12           0          12
      431493  1096229568         188         245          66          10           1           5           0           5          17           0          17
